<?xml version="1.0" encoding="utf-8"?>
<!-- Generator: Adobe Illustrator 18.0.0, SVG Export Plug-In . SVG Version: 6.00 Build 0)  -->
<!DOCTYPE svg PUBLIC "-//W3C//DTD SVG 1.1//EN" "http://www.w3.org/Graphics/SVG/1.1/DTD/svg11.dtd">
<svg version="1.1" id="Layer_1" xmlns="http://www.w3.org/2000/svg" xmlns:xlink="http://www.w3.org/1999/xlink" x="0px" y="0px"
	 viewBox="0 0 193.83 40" enable-background="new 0 0 193.83 40" xml:space="preserve">
<g>
	<path fill="#FFB819" d="M20,0C8.955,0,0,8.955,0,20s8.955,20,20,20s20-8.955,20-20S31.045,0,20,0z M20,2c9.925,0,18,8.075,18,18
		c0,2.253-0.434,4.402-1.194,6.392l-5.648-5.648c0.288-0.52,0.467-1.109,0.467-1.744c0-1.999-1.626-3.625-3.625-3.625
		S24.375,17.001,24.375,19c0,0.635,0.179,1.224,0.467,1.744L23,22.586l-3.481-3.481C19.82,18.463,20,17.754,20,17
		c0-2.757-2.243-5-5-5s-5,2.243-5,5c0,0.754,0.18,1.463,0.481,2.105l-7.287,7.287C2.434,24.402,2,22.253,2,20
		C2,10.075,10.075,2,20,2z M26.125,19c0-1.034,0.841-1.875,1.875-1.875s1.875,0.841,1.875,1.875S29.034,20.875,28,20.875
		S26.125,20.034,26.125,19z M12,17c0-1.654,1.346-3,3-3s3,1.346,3,3s-1.346,3-3,3S12,18.654,12,17z M20,38
		c-6.913,0-12.918-3.922-15.933-9.653l7.626-7.626C12.577,21.507,13.727,22,15,22s2.423-0.493,3.307-1.279l3.986,3.986
		C22.488,24.902,22.744,25,23,25s0.512-0.098,0.707-0.293l2.549-2.549c0.52,0.288,1.109,0.467,1.744,0.467s1.224-0.179,1.744-0.467
		l6.189,6.189C32.918,34.078,26.913,38,20,38z"/>
	<g>
		<path d="M56.939,16.664c0.023-0.096,0.119-0.18,0.215-0.18h0.192c0.072,0,0.181,0.061,0.204,0.133l2.507,6.128h0.048l2.494-6.128
			c0.024-0.072,0.12-0.133,0.204-0.133h0.192c0.096,0,0.191,0.084,0.216,0.18l1.476,8.061C64.723,24.893,64.639,25,64.471,25h-0.779
			c-0.107,0-0.204-0.084-0.229-0.168l-0.887-5.361c-0.012,0-0.036,0-0.036,0l-2.159,5.518c-0.023,0.072-0.096,0.132-0.203,0.132
			h-0.217c-0.096,0-0.18-0.06-0.203-0.132l-2.171-5.518c-0.013,0-0.036,0-0.048,0l-0.863,5.361C56.663,24.916,56.555,25,56.459,25
			H55.68c-0.168,0-0.252-0.107-0.228-0.275L56.939,16.664z"/>
		<path d="M65.448,24.688l3.682-8.07c0.036-0.072,0.144-0.133,0.204-0.133h0.12c0.06,0,0.167,0.061,0.204,0.133l3.658,8.07
			C73.388,24.844,73.292,25,73.111,25h-0.755c-0.144,0-0.228-0.072-0.276-0.18l-0.743-1.644h-3.922
			c-0.239,0.552-0.491,1.092-0.731,1.644C66.647,24.904,66.551,25,66.408,25h-0.756C65.473,25,65.376,24.844,65.448,24.688z
			 M70.881,22.146l-1.475-3.286h-0.061l-1.463,3.286H70.881z"/>
		<path d="M74.64,16.832c0-0.119,0.096-0.228,0.216-0.228h2.758c2.315,0,4.21,1.884,4.21,4.187c0,2.326-1.895,4.209-4.21,4.209
			h-2.758c-0.12,0-0.216-0.107-0.216-0.229V16.832z M77.445,23.861c1.764,0,3.047-1.296,3.047-3.07c0-1.764-1.283-3.047-3.047-3.047
			h-1.582v6.117H77.445z"/>
		<path d="M83.676,16.832c0-0.119,0.096-0.228,0.227-0.228H88.7c0.132,0,0.228,0.108,0.228,0.228v0.672
			c0,0.12-0.096,0.229-0.228,0.229h-3.79v2.446h3.203c0.119,0,0.227,0.108,0.227,0.228v0.672c0,0.132-0.107,0.229-0.227,0.229H84.91
			v2.578h3.79c0.132,0,0.228,0.107,0.228,0.228v0.659c0,0.121-0.096,0.229-0.228,0.229h-4.798c-0.131,0-0.227-0.107-0.227-0.229
			V16.832z"/>
		<path d="M93.623,16.832c0-0.119,0.096-0.228,0.228-0.228h2.687c1.451,0,2.494,0.96,2.494,2.219c0,0.924-0.684,1.583-1.246,1.907
			c0.635,0.264,1.498,0.852,1.498,1.955c0,1.343-1.104,2.314-2.614,2.314h-2.818c-0.132,0-0.228-0.107-0.228-0.229V16.832z
			 M96.657,23.896c0.731,0,1.296-0.563,1.296-1.307c0-0.732-0.696-1.26-1.477-1.26h-1.643v2.566H96.657z M96.465,20.25
			c0.768,0,1.236-0.563,1.236-1.283c0-0.73-0.469-1.234-1.236-1.234h-1.619v2.518H96.465z"/>
		<path d="M102.814,20.958l-2.807-4.005c-0.096-0.156,0-0.349,0.191-0.349h0.889c0.096,0,0.155,0.06,0.191,0.108l2.17,3.059
			l2.172-3.059c0.035-0.049,0.107-0.108,0.191-0.108h0.899c0.192,0,0.288,0.192,0.192,0.349l-2.843,3.993v3.825
			c0,0.121-0.108,0.229-0.228,0.229h-0.792c-0.132,0-0.228-0.107-0.228-0.229V20.958z"/>
		<path d="M111.887,16.832c0-0.119,0.096-0.228,0.216-0.228h2.927c2.314,0,4.209,1.884,4.209,4.187c0,2.326-1.895,4.209-4.209,4.209
			h-2.927c-0.12,0-0.216-0.107-0.216-0.229V16.832z M114.909,23.225c1.355,0,2.339-1.066,2.339-2.434
			c0-1.355-0.983-2.424-2.339-2.424h-1.151v4.857H114.909z"/>
		<path d="M119.664,24.688l3.754-8.07c0.035-0.072,0.119-0.133,0.203-0.133h0.12c0.084,0,0.168,0.061,0.204,0.133l3.754,8.07
			c0.072,0.156-0.024,0.313-0.204,0.313h-1.331c-0.216,0-0.313-0.072-0.42-0.3l-0.432-0.947h-3.262l-0.433,0.959
			c-0.06,0.144-0.192,0.288-0.432,0.288h-1.319C119.687,25,119.592,24.844,119.664,24.688z M124.593,22.121l-0.911-1.979h-0.012
			l-0.9,1.979H124.593z"/>
		<path d="M129.454,18.367h-1.715c-0.132,0-0.228-0.107-0.228-0.228v-1.308c0-0.119,0.096-0.228,0.228-0.228h5.325
			c0.132,0,0.228,0.108,0.228,0.228v1.308c0,0.12-0.096,0.228-0.228,0.228h-1.715v6.404c0,0.121-0.108,0.229-0.229,0.229h-1.439
			c-0.119,0-0.228-0.107-0.228-0.229V18.367z"/>
		<path d="M133.104,24.688l3.754-8.07c0.036-0.072,0.119-0.133,0.203-0.133h0.121c0.084,0,0.168,0.061,0.203,0.133l3.754,8.07
			c0.072,0.156-0.023,0.313-0.203,0.313h-1.332c-0.216,0-0.312-0.072-0.42-0.3l-0.432-0.947h-3.262l-0.432,0.959
			c-0.061,0.144-0.192,0.288-0.432,0.288h-1.32C133.127,25,133.031,24.844,133.104,24.688z M138.033,22.121l-0.912-1.979h-0.012
			l-0.9,1.979H138.033z"/>
		<path d="M142.234,16.701c0-0.121,0.107-0.217,0.228-0.217h0.3l4.785,4.605h0.013v-4.258c0-0.119,0.096-0.228,0.228-0.228h1.439
			c0.119,0,0.228,0.108,0.228,0.228v8.072c0,0.119-0.108,0.216-0.228,0.216h-0.191c-0.037,0-0.133-0.036-0.156-0.06l-4.738-4.762
			h-0.012v4.473c0,0.121-0.096,0.229-0.228,0.229h-1.427c-0.121,0-0.229-0.107-0.229-0.229L142.234,16.701z"/>
		<path d="M150.562,24.688l3.754-8.07c0.036-0.072,0.12-0.133,0.204-0.133h0.12c0.084,0,0.168,0.061,0.204,0.133l3.754,8.07
			c0.071,0.156-0.024,0.313-0.204,0.313h-1.331c-0.216,0-0.312-0.072-0.42-0.3l-0.432-0.947h-3.263l-0.432,0.959
			c-0.06,0.144-0.191,0.288-0.432,0.288h-1.319C150.587,25,150.49,24.844,150.562,24.688z M155.492,22.121l-0.912-1.979h-0.012
			l-0.899,1.979H155.492z"/>
		<path d="M159.442,16.832c0-0.119,0.108-0.228,0.228-0.228h1.476c0.132,0,0.228,0.108,0.228,0.228v4.857
			c0,0.84,0.624,1.512,1.476,1.512c0.863,0,1.499-0.672,1.499-1.512v-4.857c0-0.119,0.096-0.228,0.228-0.228h1.476
			c0.119,0,0.228,0.108,0.228,0.228v4.953c0,1.824-1.535,3.335-3.43,3.335c-1.884,0-3.406-1.511-3.406-3.335V16.832z"/>
		<path d="M169.414,18.367h-1.715c-0.133,0-0.229-0.107-0.229-0.228v-1.308c0-0.119,0.096-0.228,0.229-0.228h5.324
			c0.132,0,0.229,0.108,0.229,0.228v1.308c0,0.12-0.097,0.228-0.229,0.228h-1.715v6.404c0,0.121-0.107,0.229-0.229,0.229h-1.438
			c-0.12,0-0.228-0.107-0.228-0.229V18.367z"/>
		<path d="M174.574,16.832c0-0.119,0.107-0.228,0.229-0.228h1.439c0.119,0,0.227,0.108,0.227,0.228v7.939
			c0,0.121-0.107,0.229-0.227,0.229h-1.439c-0.121,0-0.229-0.107-0.229-0.229V16.832z"/>
		<path d="M178.654,16.893c0-0.156,0.119-0.288,0.287-0.288h1.404c0.155,0,0.287,0.132,0.287,0.288v3.154l2.662-3.322
			c0.049-0.061,0.156-0.12,0.229-0.12h1.512c0.227,0,0.348,0.265,0.215,0.444l-2.807,3.514l3.059,3.982
			c0.133,0.18,0,0.443-0.228,0.443h-1.655c-0.084,0-0.191-0.049-0.216-0.084l-2.771-3.766v3.573c0,0.156-0.132,0.288-0.287,0.288
			h-1.404c-0.168,0-0.287-0.132-0.287-0.288V16.893z"/>
		<path d="M185.771,24.688l3.754-8.07c0.036-0.072,0.12-0.133,0.204-0.133h0.119c0.084,0,0.168,0.061,0.205,0.133l3.754,8.07
			c0.071,0.156-0.024,0.313-0.205,0.313h-1.33c-0.217,0-0.313-0.072-0.42-0.3l-0.432-0.947h-3.263l-0.433,0.959
			c-0.059,0.144-0.191,0.288-0.432,0.288h-1.318C185.795,25,185.698,24.844,185.771,24.688z M190.699,22.121l-0.911-1.979h-0.012
			l-0.899,1.979H190.699z"/>
	</g>
</g>
</svg>
