<svg xmlns="http://www.w3.org/2000/svg" xmlns:xlink="http://www.w3.org/1999/xlink">
	<symbol id="beer" viewBox="0 0 30 30">
		<path fill="currentColor" d="M21.71,3.076c-0.001-1.125-0.916-2.039-2.041-2.039c-0.064,0-0.128,0.003-0.194,0.011
			c-0.374-0.339-0.856-0.529-1.361-0.529c-0.21,0-0.415,0.033-0.615,0.099C17.119,0.225,16.597,0,16.04,0
			c-0.366,0-0.723,0.101-1.037,0.288C14.69,0.101,14.333,0,13.967,0c-0.557,0-1.078,0.225-1.458,0.617
			c-0.2-0.066-0.405-0.099-0.615-0.099c-0.505,0-0.988,0.19-1.361,0.529c-0.066-0.007-0.13-0.011-0.194-0.011
			c-1.109,0-2.013,0.889-2.04,1.991C8.251,3.296,7.993,4.885,8.031,7.231c0.038,2.327,0.391,5.864,1.856,9.505
			c0.892,2.216,1.379,4.223,1.488,6.137c0.097,1.695-0.092,3.349-0.595,5.205c-0.126,0.466-0.032,0.951,0.26,1.332
			c0.287,0.375,0.723,0.59,1.196,0.59h5.526c0.473,0,0.909-0.215,1.196-0.59c0.291-0.381,0.386-0.866,0.26-1.332
			c-0.503-1.856-0.692-3.51-0.595-5.205c0.11-1.914,0.597-3.921,1.488-6.137c1.465-3.641,1.818-7.179,1.856-9.505
			C22.005,4.999,21.773,3.453,21.71,3.076z M10.338,2.009c0.075,0,0.155,0.011,0.25,0.034c0.18,0.043,0.369-0.019,0.488-0.162
			c0.207-0.248,0.504-0.391,0.817-0.391c0.178,0,0.354,0.049,0.522,0.144c0.225,0.128,0.511,0.056,0.65-0.163
			c0.198-0.313,0.535-0.5,0.901-0.5c0.259,0,0.512,0.099,0.711,0.279c0.185,0.167,0.466,0.167,0.65,0
			c0.2-0.18,0.452-0.279,0.711-0.279c0.366,0,0.702,0.187,0.901,0.5c0.139,0.219,0.425,0.29,0.65,0.163
			c0.169-0.096,0.344-0.144,0.522-0.144c0.313,0,0.61,0.142,0.817,0.391c0.118,0.142,0.307,0.205,0.488,0.162
			c0.096-0.023,0.175-0.034,0.25-0.034c0.414,0,0.774,0.238,0.951,0.583h-3.024c-0.268,0-0.486,0.218-0.486,0.486l0,3.11
			c0,0.304-0.247,0.551-0.551,0.551s-0.551-0.247-0.551-0.551l0-3.075c0-0.382-0.291-0.521-0.486-0.521h-2.073
			c-0.268,0-0.486,0.218-0.486,0.486v6.22c0,0.304-0.247,0.551-0.551,0.551c-0.304,0-0.551-0.247-0.551-0.551v-6.22
			c0-0.268-0.218-0.486-0.486-0.486H9.387C9.565,2.246,9.924,2.009,10.338,2.009z M9.201,3.564h1.688v5.248H9.081
			C8.897,6.306,9.094,4.363,9.201,3.564z M19.211,16.374c-1.747,4.341-2.025,7.918-0.93,11.959
			c0.046,0.171,0.012,0.349-0.094,0.487c-0.06,0.078-0.194,0.209-0.424,0.209h-5.526c-0.23,0-0.364-0.131-0.424-0.209
			c-0.106-0.138-0.14-0.316-0.093-0.487c1.095-4.041,0.817-7.617-0.93-11.959c-0.93-2.31-1.401-4.59-1.619-6.59h1.799
			c0.203,0.602,0.773,1.037,1.443,1.037c0.67,0,1.239-0.435,1.443-1.037h6.977C20.613,11.782,20.141,14.062,19.211,16.374z
			 M20.921,8.812h-6.986V3.564h1.101c0,0.67,0,1.883,0,2.624c0,0.84,0.683,1.523,1.523,1.523c0.84,0,1.523-0.683,1.523-1.523
			l0-2.624h2.718C20.907,4.363,21.106,6.305,20.921,8.812z"/>
		<path fill="currentColor" d="M16.559,26.955h-3.11c-0.268,0-0.486,0.218-0.486,0.486c0,0.268,0.218,0.486,0.486,0.486h3.11
			c0.268,0,0.486-0.218,0.486-0.486C17.045,27.172,16.827,26.955,16.559,26.955z"/>
		<path fill="currentColor" d="M16.394,20.139c0.036,0.008,0.072,0.012,0.107,0.012c0.222,0,0.423-0.153,0.474-0.379
			c0.274-1.215,0.671-2.461,1.214-3.81c0.174-0.433,0.337-0.88,0.485-1.329c0.084-0.255-0.055-0.53-0.31-0.614
			c-0.255-0.084-0.53,0.055-0.614,0.31c-0.141,0.429-0.297,0.856-0.464,1.27c-0.562,1.397-0.975,2.692-1.261,3.958
			C15.968,19.82,16.132,20.08,16.394,20.139z"/>
		<path fill="currentColor" d="M18.679,12.882c0.036,0.008,0.073,0.012,0.108,0.012c0.222,0,0.422-0.153,0.473-0.378
			c0.079-0.347,0.151-0.703,0.216-1.058c0.048-0.264-0.127-0.517-0.391-0.565c-0.264-0.048-0.517,0.127-0.565,0.391
			c-0.062,0.341-0.132,0.682-0.207,1.016C18.253,12.562,18.417,12.823,18.679,12.882z"/>
	</symbol>

	<symbol id="dinner" viewBox="0 0 30 30">
		<path fill="currentColor" d="M12.737,12.839c-0.021-0.267-0.256-0.467-0.523-0.446c-0.268,0.021-0.467,0.256-0.446,0.523l0.226,2.824
			c0.02,0.254,0.233,0.447,0.484,0.447c0.013,0,0.026-0.001,0.039-0.002c0.268-0.021,0.467-0.256,0.446-0.523L12.737,12.839z"/>
		<path fill="currentColor" d="M12.104,11.518c0.013,0,0.026-0.001,0.039-0.002c0.268-0.021,0.467-0.256,0.446-0.523l-0.056-0.697
			c-0.021-0.267-0.256-0.467-0.523-0.446c-0.268,0.021-0.467,0.256-0.446,0.523l0.056,0.697
			C11.641,11.325,11.854,11.518,12.104,11.518z"/>
		<path fill="currentColor" d="M29.514,25.918h-3.661v-9.881c0-0.268-0.218-0.486-0.486-0.486H23.78v-1.16c0.892-0.219,1.555-1.024,1.555-1.982
			c0-0.938-1.347-3.385-1.617-3.866c-0.086-0.153-0.248-0.248-0.424-0.248c-0.176,0-0.338,0.095-0.424,0.248
			c-0.27,0.481-1.617,2.928-1.617,3.866c0,0.958,0.664,1.763,1.555,1.982v1.16H21.22c-0.268,0-0.486,0.218-0.486,0.486v9.881
			h-1.102v-5.216c0-0.268-0.218-0.486-0.486-0.486h-1.069v-1.181c0.602-0.203,1.037-0.773,1.037-1.443
			c0-0.64-0.835-2.316-1.09-2.814c-0.083-0.162-0.25-0.264-0.432-0.264s-0.349,0.102-0.432,0.264
			c-0.256,0.498-1.09,2.174-1.09,2.814c0,0.67,0.435,1.239,1.037,1.443v1.181h-1.069c-0.268,0-0.486,0.218-0.486,0.486v5.216
			H9.784v-4.233c1.422-0.122,2.764-0.773,3.739-1.828c1.085-1.175,1.634-2.764,1.507-4.359l-0.582-7.275
			c-0.02-0.253-0.231-0.447-0.484-0.447h-9.33c-0.253,0-0.464,0.195-0.484,0.447l-0.582,7.275
			c-0.128,1.595,0.422,3.183,1.507,4.359c0.975,1.056,2.316,1.707,3.739,1.829v4.233H0.486C0.218,25.918,0,26.136,0,26.404
			c0,0.268,0.218,0.486,0.486,0.486h5.188l1.288,2.021c-0.245,0.076-0.505,0.117-0.775,0.117c-0.268,0-0.486,0.218-0.486,0.486
			C5.702,29.782,5.92,30,6.188,30h19.179c0.268,0,0.486-0.218,0.486-0.486V26.89h3.661c0.268,0,0.486-0.218,0.486-0.486
			C30,26.136,29.782,25.918,29.514,25.918z M22.225,12.408c0-0.396,0.539-1.581,1.07-2.606c0.733,1.404,1.068,2.348,1.068,2.606
			c0,0.59-0.48,1.069-1.069,1.069C22.704,13.477,22.225,12.998,22.225,12.408z M17.041,17.592c0.001-0.19,0.244-0.809,0.551-1.478
			c0.307,0.669,0.55,1.288,0.551,1.478c0,0.304-0.247,0.551-0.551,0.551S17.041,17.895,17.041,17.592z M16.523,21.188h2.138v4.73
			h-2.138V21.188z M4.535,15.575l0.546-6.828h8.433l0.546,6.828c0.042,0.524-0.001,1.038-0.122,1.531H4.657
			C4.536,16.614,4.493,16.099,4.535,15.575z M5.787,19.197c-0.315-0.341-0.573-0.718-0.773-1.12h8.567
			c-0.2,0.402-0.458,0.778-0.773,1.12c-0.915,0.991-2.162,1.537-3.511,1.537S6.702,20.189,5.787,19.197z M7.823,28.454
			L6.827,26.89h1.94C8.648,27.519,8.305,28.069,7.823,28.454z M8.643,29.028c0.256-0.24,0.477-0.517,0.655-0.822
			c0.178,0.305,0.399,0.582,0.655,0.822H8.643z M21.22,29.028h-8.812c-1.281,0-2.35-0.923-2.578-2.138h13.342l-1.051,1.645
			C21.924,28.844,21.587,29.028,21.22,29.028z M24.881,29.028h-1.922l1.366-2.138h0.556V29.028z M24.881,25.918h-3.175v-9.395
			h3.175V25.918z"/>
	</symbol>

	<symbol id="wine" viewBox="0 0 30 30">
		<path fill="currentColor" d="M21.202,18.088L20.63,12.36c-0.025-0.248-0.234-0.438-0.484-0.438h-3.182c-0.087-0.543-0.319-1.058-0.674-1.484
			L14.9,8.769c-0.315-0.378-0.488-0.857-0.488-1.348V2.919c0.309-0.172,0.518-0.501,0.518-0.878V1.004
			C14.93,0.451,14.479,0,13.926,0h-2.073c-0.554,0-1.004,0.451-1.004,1.004v1.037c0,0.378,0.21,0.707,0.518,0.878v4.502
			c0,0.492-0.173,0.97-0.488,1.348l-1.39,1.668c-0.46,0.552-0.713,1.252-0.713,1.97v16.069c0,0.84,0.683,1.523,1.523,1.523
			c0,0,4.308,0,4.341,0h3.758c0.268,0,0.486-0.218,0.486-0.486c0-0.268-0.218-0.486-0.486-0.486c-0.768,0-1.393-0.625-1.393-1.393
			v-4.341c0-0.019-0.001-0.039-0.004-0.057c1.15-0.118,2.227-0.659,3.009-1.523C20.899,20.729,21.334,19.408,21.202,18.088z
			 M11.82,1.004c0-0.018,0.015-0.032,0.032-0.032h2.073c0.018,0,0.032,0.015,0.032,0.032v1.037c0,0.018-0.015,0.032-0.032,0.032
			h-2.073c-0.018,0-0.032-0.015-0.032-0.032V1.004z M9.746,12.408c0-0.492,0.173-0.97,0.488-1.348l1.39-1.668
			c0.46-0.552,0.713-1.252,0.713-1.97V3.045h1.102v4.376c0,0.719,0.253,1.418,0.713,1.97l1.39,1.668
			c0.209,0.251,0.356,0.547,0.431,0.862h-3.085c-0.25,0-0.459,0.189-0.484,0.438l-0.267,2.673H9.746V12.408z M9.746,16.004h2.295
			l-0.208,2.083c-0.132,1.32,0.303,2.642,1.193,3.626c0.277,0.306,0.591,0.572,0.932,0.792v1.307c0,0.304-0.247,0.551-0.551,0.551
			H9.746V16.004z M12.8,18.184l0.218-2.18h0.39c0.304,0,0.551,0.247,0.551,0.551v2.106h-1.174
			C12.78,18.503,12.784,18.344,12.8,18.184z M16.031,23.294v4.341c0,0.768-0.625,1.393-1.393,1.393c-0.033,0-4.341,0-4.341,0
			c-0.304,0-0.551-0.247-0.551-0.551v-3.143h3.661c0.84,0,1.523-0.683,1.523-1.523v-0.828c0.355,0.127,0.726,0.213,1.105,0.252
			C16.033,23.255,16.031,23.274,16.031,23.294z M19.288,21.061c-0.706,0.781-1.715,1.228-2.768,1.228h-0.006
			c-1.053,0-2.062-0.448-2.768-1.228c-0.375-0.414-0.646-0.904-0.805-1.428h7.151C19.935,20.157,19.663,20.647,19.288,21.061z
			 M20.251,18.661H14.93v-2.106c0-0.84-0.683-1.523-1.523-1.523h-0.292l0.214-2.138h6.377l0.529,5.29
			C20.251,18.344,20.255,18.503,20.251,18.661z"/>
	</symbol>

	<symbol id="cocktail" viewBox="0 0 30 30">
		<path fill="currentColor" d="M22.92,1.808c-2.39,0-4.364,1.82-4.607,4.147h-7.831L10.1,4.109c-0.147-0.71-0.665-1.293-1.353-1.523l-5.371-1.79
			c-0.255-0.085-0.53,0.053-0.615,0.307c-0.085,0.255,0.053,0.53,0.307,0.615l5.371,1.79c0.36,0.12,0.632,0.426,0.709,0.798
			L9.49,5.955H2.186c-0.181,0-0.346,0.1-0.43,0.26s-0.072,0.353,0.03,0.502l10.281,14.908v4.261c0,1.733-1.41,3.143-3.143,3.143
			c-0.268,0-0.486,0.218-0.486,0.486C8.439,29.782,8.656,30,8.925,30h7.257c0.268,0,0.486-0.218,0.486-0.486
			c0-0.268-0.218-0.486-0.486-0.486c-1.733,0-3.143-1.41-3.143-3.143v-4.261l7.666-11.116c0.658,0.36,1.413,0.565,2.215,0.565
			c2.555,0,4.633-2.078,4.633-4.633S25.475,1.808,22.92,1.808z M3.111,6.926h6.579l0.871,4.212H6.016L3.111,6.926z M13.529,29.028
			h-1.951c0.396-0.335,0.728-0.743,0.975-1.204C12.8,28.285,13.132,28.693,13.529,29.028z M12.553,20.617L6.686,12.11h4.077
			l1.314,6.351c0.047,0.23,0.25,0.388,0.475,0.388c0.033,0,0.066-0.003,0.099-0.01c0.263-0.054,0.432-0.312,0.377-0.574
			l-1.273-6.154h1.407c0.219,0.892,1.024,1.555,1.982,1.555s1.763-0.664,1.982-1.555h1.293L12.553,20.617z M16.096,12.11
			c-0.177,0.346-0.537,0.583-0.951,0.583c-0.414,0-0.774-0.238-0.951-0.583H16.096z M14.194,11.138
			c0.177-0.346,0.537-0.583,0.951-0.583c0.414,0,0.774,0.238,0.951,0.583H14.194z M19.09,11.138h-1.963
			c-0.219-0.892-1.024-1.555-1.982-1.555c-0.051,0-0.101,0.003-0.151,0.006c-0.314-0.895-1.071-1.863-2.362-2.073
			c-0.265-0.043-0.515,0.137-0.558,0.402c-0.043,0.265,0.137,0.515,0.402,0.558c0.996,0.162,1.427,0.971,1.591,1.417
			c-0.445,0.278-0.775,0.723-0.904,1.246h-1.608l-0.871-4.212h7.63c0.126,1.207,0.719,2.277,1.593,3.028L19.09,11.138z
			 M20.461,9.15c-0.624-0.567-1.052-1.347-1.169-2.224h2.702L20.461,9.15z M22.92,10.101c-0.597,0-1.161-0.145-1.659-0.399
			l1.728-2.506l1.143,1.143c0.095,0.095,0.219,0.142,0.344,0.142c0.124,0,0.249-0.047,0.344-0.142c0.19-0.19,0.19-0.497,0-0.687
			L23.607,6.44l1.211-1.211c0.19-0.19,0.19-0.497,0-0.687c-0.19-0.19-0.497-0.19-0.687,0L22.92,5.753l-1.211-1.211
			c-0.19-0.19-0.497-0.19-0.687,0c-0.19,0.19-0.19,0.497,0,0.687l0.726,0.726h-2.454c0.239-1.79,1.774-3.175,3.628-3.175
			c2.019,0,3.661,1.642,3.661,3.661S24.939,10.101,22.92,10.101z"/>
	</symbol>

	<symbol id="noodles" viewBox="0 0 30 30">
		<path fill="currentColor" d="M29.95,17.896c-0.082-0.166-0.251-0.272-0.436-0.272h-6.282c-0.089-0.75-0.38-1.439-0.817-2.01l6.434-7.603
			c0.173-0.205,0.148-0.511-0.057-0.685c-0.205-0.173-0.512-0.148-0.685,0.057l-6.373,7.53c-0.535-0.434-1.181-0.736-1.888-0.857
			l4.416-10.795c0.102-0.248-0.017-0.532-0.266-0.634c-0.248-0.102-0.532,0.017-0.634,0.266L18.815,14.01
			c-0.977,0.079-1.859,0.5-2.525,1.143c-1.076-1.981-3.149-3.231-5.437-3.231c-3.248,0-5.92,2.516-6.169,5.702H0.486
			c-0.185,0-0.355,0.105-0.436,0.272c-0.082,0.166-0.062,0.365,0.052,0.511l8.501,11.001C8.889,29.779,9.339,30,9.807,30h10.386
			c0.468,0,0.919-0.221,1.205-0.592l8.501-11.001C30.012,18.261,30.032,18.062,29.95,17.896z M21.767,16.378
			c0.244,0.369,0.413,0.791,0.484,1.246h-1.123c-0.03-0.121-0.07-0.238-0.12-0.349L21.767,16.378z M19.145,14.968
			c0.001,0,0.001,0,0.002,0c0,0,0.001,0,0.001,0c0.74,0,1.42,0.258,1.958,0.688l-0.712,0.841
			c-0.345-0.267-0.778-0.427-1.247-0.427c-0.958,0-1.763,0.664-1.982,1.555h-1.123C16.276,16.122,17.578,14.969,19.145,14.968z
			 M19.765,17.24l-0.325,0.385h-1.244c0.177-0.346,0.537-0.583,0.951-0.583C19.377,17.041,19.59,17.115,19.765,17.24z
			 M10.853,12.894c2.069,0,3.93,1.213,4.767,3.099c-0.294,0.487-0.489,1.041-0.558,1.631h-0.124
			c-0.241-2.04-1.981-3.629-4.085-3.629s-3.843,1.588-4.085,3.629H5.661C5.907,14.975,8.141,12.894,10.853,12.894z M10.853,16.069
			c-0.958,0-1.763,0.664-1.982,1.555H7.748c0.234-1.503,1.537-2.657,3.105-2.657s2.871,1.154,3.105,2.657h-1.123
			C12.617,16.733,11.811,16.069,10.853,16.069z M11.804,17.624H9.902c0.177-0.346,0.537-0.583,0.951-0.583
			S11.627,17.279,11.804,17.624z M20.629,28.814c-0.104,0.134-0.266,0.214-0.436,0.214H9.807c-0.169,0-0.332-0.08-0.436-0.214
			L1.476,18.596h27.049L20.629,28.814z"/>
		<path fill="currentColor" d="M13.996,9.3c0,0.818,0.347,1.251,0.625,1.599c0.239,0.299,0.412,0.514,0.412,0.991c0,0.268,0.218,0.486,0.486,0.486
			s0.486-0.218,0.486-0.486c0-0.818-0.347-1.251-0.625-1.599C15.14,9.993,14.968,9.777,14.968,9.3
			c0-0.478,0.173-0.694,0.412-0.992c0.278-0.348,0.625-0.781,0.625-1.6c0-0.819-0.346-1.252-0.625-1.6
			c-0.239-0.299-0.412-0.515-0.412-0.993c0-0.268-0.218-0.486-0.486-0.486s-0.486,0.218-0.486,0.486
			c0,0.819,0.346,1.252,0.625,1.6c0.239,0.299,0.412,0.515,0.412,0.993c0,0.478-0.173,0.694-0.412,0.992
			C14.342,8.048,13.996,8.482,13.996,9.3z"/>
		<path fill="currentColor" d="M16.619,9.785c0.154,0,0.292-0.072,0.381-0.184c0.351-0.438,1.078-1.349,1.078-2.893c0-0.627-0.121-1.218-0.358-1.757
			c-0.108-0.246-0.395-0.357-0.641-0.248s-0.357,0.395-0.248,0.641c0.183,0.414,0.276,0.874,0.276,1.365
			c0,1.2-0.537,1.877-0.862,2.282c-0.069,0.084-0.111,0.192-0.111,0.309C16.133,9.568,16.35,9.785,16.619,9.785z"/>
		<path fill="currentColor" d="M12.721,11.336c0.065,0,0.131-0.013,0.195-0.041c0.246-0.108,0.358-0.394,0.25-0.64
			c-0.18-0.412-0.272-0.867-0.272-1.355c0-1.205,0.542-1.882,0.866-2.288c0.009-0.011,0.017-0.022,0.025-0.034
			c0.109-0.163,0.108-0.379-0.001-0.542c-0.149-0.223-0.451-0.284-0.674-0.135c-0.058,0.038-0.104,0.087-0.139,0.142
			c-0.36,0.451-1.049,1.354-1.049,2.857c0,0.622,0.119,1.209,0.353,1.744C12.355,11.227,12.534,11.336,12.721,11.336z"/>
	</symbol>

	<symbol id="coffee" viewBox="0 0 28 28">
		<path fill="currentColor" d="M29.997,27.386c-0.027-0.246-0.235-0.433-0.483-0.433h-3.725c0.041-0.111,0.064-0.23,0.064-0.353v-1.433
			c0-0.351-0.178-0.67-0.476-0.854c-0.298-0.184-0.664-0.201-0.977-0.044l-0.791,0.396c-0.254-0.488-0.764-0.822-1.351-0.822
			h-0.036l1.04-10.403c0.002-0.017,0.015-0.029,0.032-0.029c0.268,0,0.486-0.218,0.486-0.486c0-0.268-0.218-0.486-0.486-0.486
			h-1.271c-1.891-3.168-6.723-4.1-6.934-4.139c-0.142-0.027-0.288,0.012-0.399,0.104c-0.111,0.092-0.175,0.229-0.175,0.374
			c0,0.66-0.9,0.954-2.383,1.36c-1.461,0.4-3.259,0.893-4.151,2.301H6.756c-0.268,0-0.486,0.218-0.486,0.486
			c0,0.268,0.218,0.486,0.486,0.486c0.017,0,0.031,0.013,0.032,0.029l0.223,2.227C6.756,15.59,6.489,15.55,6.215,15.55
			c-0.797,0-1.549,0.349-2.064,0.956c-0.515,0.608-0.735,1.407-0.604,2.193l0.308,1.845c0.212,1.274,1.303,2.198,2.594,2.198
			c0.437,0,0.861-0.109,1.238-0.31l0.329,3.292c0.043,0.433,0.162,0.848,0.35,1.23h-7.88c-0.248,0-0.456,0.187-0.483,0.433
			s0.136,0.474,0.378,0.527l9.33,2.073c0.035,0.008,0.07,0.012,0.105,0.012h10.367c0.035,0,0.071-0.004,0.105-0.012l9.33-2.073
			C29.861,27.86,30.024,27.633,29.997,27.386z M6.449,21.77c-0.814,0-1.502-0.583-1.636-1.386l-0.308-1.845
			c-0.084-0.503,0.057-1.015,0.387-1.405c0.33-0.389,0.812-0.613,1.327-0.613c0.322,0,0.63,0.088,0.901,0.254l0.455,4.553
			C7.271,21.611,6.869,21.77,6.449,21.77z M23.78,25.666l1.055-0.527c0.006-0.003,0.016-0.008,0.032,0.001
			c0.015,0.009,0.015,0.021,0.015,0.028v1.433c0,0.007,0,0.018-0.015,0.028c-0.015,0.01-0.025,0.004-0.032,0.001l-1.055-0.527
			V25.666z M22.257,24.815c0.304,0,0.551,0.247,0.551,0.551v0.999c-0.001,0.019-0.002,0.039-0.001,0.058
			c-0.011,0.294-0.253,0.531-0.55,0.531H18.11c-0.304,0-0.551-0.247-0.551-0.551v-0.998c0.001-0.02,0.002-0.039,0.001-0.059
			c0.011-0.294,0.253-0.53,0.55-0.53h3.574c0.001,0,0.001,0,0.002,0H22.257z M16.058,9.553c1.342,0.41,3.538,1.287,4.787,2.886
			h-5.537c0.393-0.427,0.766-0.989,0.874-1.653C16.249,10.368,16.207,9.956,16.058,9.553z M12.388,11.076
			c1.075-0.294,2.176-0.596,2.73-1.258c0.113,0.27,0.148,0.539,0.104,0.81c-0.144,0.897-1.084,1.598-1.401,1.811H9.243
			C10.032,11.722,11.268,11.383,12.388,11.076z M7.762,13.411h14.526l-1.043,10.432H18.11c-0.587,0-1.097,0.334-1.351,0.822
			l-0.791-0.396c-0.314-0.157-0.679-0.14-0.977,0.044c-0.298,0.184-0.476,0.504-0.476,0.854v1.433
			c0,0.123,0.022,0.242,0.064,0.353H9.504c-0.293-0.385-0.472-0.839-0.521-1.326L7.762,13.411z M16.587,25.666v0.436l-1.055,0.527
			c-0.006,0.003-0.016,0.008-0.031-0.001c-0.015-0.009-0.015-0.021-0.015-0.028v-1.433c0-0.007,0-0.018,0.015-0.028
			c0.015-0.01,0.025-0.004,0.031-0.001L16.587,25.666z M20.13,29.027H9.87l-4.957-1.102h20.174L20.13,29.027z"/>
		<path fill="currentColor" d="M13.477,5.673c0,0.818,0.347,1.251,0.625,1.599l0.253-0.202l0.506-0.405c-0.239-0.299-0.412-0.514-0.412-0.991
			c0-0.478,0.173-0.694,0.412-0.992c0.278-0.348,0.625-0.781,0.625-1.6c0-0.819-0.346-1.252-0.625-1.6
			c-0.239-0.299-0.412-0.515-0.412-0.993c0-0.268-0.218-0.486-0.486-0.486c-0.268,0-0.486,0.218-0.486,0.486
			c0,0.819,0.346,1.252,0.625,1.6c0.239,0.299,0.412,0.515,0.412,0.993c0,0.478-0.173,0.694-0.412,0.992
			C13.824,4.421,13.477,4.854,13.477,5.673z"/>
		<polygon fill="currentColor" points="14.103,7.272 14.482,6.968 14.355,7.069 				"/>
		<path fill="currentColor" d="M16.101,6.158c0.154,0,0.292-0.072,0.381-0.184c0.351-0.438,1.078-1.349,1.078-2.893c0-0.627-0.121-1.218-0.358-1.757
			c-0.108-0.246-0.395-0.357-0.641-0.248c-0.246,0.108-0.357,0.395-0.248,0.641c0.183,0.414,0.276,0.874,0.276,1.365
			c0,1.2-0.537,1.877-0.862,2.282c-0.069,0.084-0.111,0.192-0.111,0.309C15.615,5.941,15.832,6.158,16.101,6.158z"/>
		<path fill="currentColor" d="M11.89,6.159c0.268,0,0.486-0.218,0.486-0.486c0-1.205,0.542-1.882,0.866-2.288c0.009-0.011,0.017-0.022,0.025-0.034
			c0.109-0.163,0.108-0.379-0.001-0.542c-0.149-0.223-0.451-0.284-0.674-0.135c-0.058,0.038-0.104,0.087-0.139,0.142
			c-0.36,0.451-1.049,1.354-1.049,2.857C11.404,5.941,11.621,6.159,11.89,6.159z"/>
	</symbol>

	<symbol id="add" viewBox="0 0 20 20">
		<path fill="currentColor" d="M10,1.333c4.779,0,8.667,3.888,8.667,8.667S14.779,18.667,10,18.667S1.333,14.779,1.333,10S5.221,1.333,10,1.333 M10,0
			C4.477,0,0,4.477,0,10s4.477,10,10,10s10-4.477,10-10S15.523,0,10,0L10,0z"/>
		<path fill="currentColor" d="M14,9.333h-3.333V6c0-0.368-0.298-0.667-0.667-0.667S9.333,5.632,9.333,6v3.333H6c-0.368,0-0.667,0.298-0.667,0.667
			S5.632,10.667,6,10.667h3.333V14c0,0.368,0.298,0.666,0.667,0.666s0.667-0.298,0.667-0.666v-3.333H14
			c0.368,0,0.666-0.298,0.666-0.667S14.368,9.333,14,9.333z"/>
	</symbol>

	<symbol id="subtract" viewBox="0 0 20 20">
		<path fill="currentColor" d="M10,1.333c4.779,0,8.667,3.888,8.667,8.667S14.779,18.667,10,18.667S1.333,14.779,1.333,10S5.221,1.333,10,1.333 M10,0
			C4.477,0,0,4.477,0,10s4.477,10,10,10s10-4.477,10-10S15.523,0,10,0L10,0z"/>
		<path fill="currentColor" d="M14,10.667H6c-0.368,0-0.667-0.298-0.667-0.667S5.632,9.333,6,9.333h8c0.368,0,0.666,0.298,0.666,0.667
			S14.368,10.667,14,10.667z"/>
	</symbol>

	<symbol id="check" viewBox="0 0 20 20">
		<path fill="currentColor" display="inline" d="M15.222,6.279c-0.262-0.261-0.682-0.261-0.943,0L8.297,12.26L5.565,9.529
		c-0.26-0.261-0.683-0.261-0.942,0c-0.26,0.26-0.26,0.682,0,0.942l3.203,3.204c0.13,0.13,0.301,0.194,0.471,0.194
			s0.341-0.064,0.471-0.194l6.454-6.454C15.481,6.961,15.481,6.539,15.222,6.279z"/>
		<path fill="currentColor" display="inline" d="M10,1.333c4.779,0,8.667,3.888,8.667,8.667S14.779,18.667,10,18.667S1.333,14.779,1.333,10
			S5.221,1.333,10,1.333 M10,0C4.477,0,0,4.477,0,10s4.477,10,10,10s10-4.477,10-10S15.523,0,10,0L10,0z"/>
	</symbol>

	<symbol id="cancel" viewBox="0 0 20 20">
		<path fill="currentColor" d="M10.91,10.031l3.061-3.061c0.259-0.26,0.259-0.681,0-0.94c-0.26-0.26-0.682-0.26-0.941,0L9.969,9.09l-3.03-3.029
		c-0.26-0.26-0.681-0.26-0.94,0s-0.26,0.681,0,0.94l3.029,3.03L6.03,13.029c-0.26,0.26-0.26,0.682,0,0.941
		c0.13,0.129,0.3,0.194,0.47,0.194s0.34-0.065,0.47-0.194l2.998-2.998l3.029,3.03c0.13,0.129,0.301,0.194,0.471,0.194
		s0.341-0.065,0.471-0.194c0.259-0.26,0.259-0.682,0-0.941L10.91,10.031z"/>
		<path fill="currentColor" d="M10,1.333c4.779,0,8.667,3.888,8.667,8.667S14.779,18.667,10,18.667S1.333,14.779,1.333,10S5.221,1.333,10,1.333 M10,0
			C4.477,0,0,4.477,0,10s4.477,10,10,10s10-4.477,10-10S15.523,0,10,0L10,0z"/>
	</symbol>

	<symbol id="check-medium" viewBox="0 0 30 30">
		<path fill="currentColor" d="M22.714,9.689c-0.262-0.261-0.682-0.261-0.943,0l-9.208,9.208l-4.333-4.333c-0.26-0.261-0.683-0.261-0.942,0
		c-0.26,0.26-0.26,0.682,0,0.942l4.805,4.805c0.13,0.13,0.301,0.194,0.471,0.194s0.341-0.064,0.471-0.194l9.68-9.68
		C22.974,10.371,22.974,9.949,22.714,9.689z"/>
		<path fill="currentColor" d="M15,1.33c7.538,0,13.67,6.132,13.67,13.67S22.538,28.67,15,28.67S1.33,22.538,1.33,15S7.462,1.33,15,1.33 M15,0
			C6.716,0,0,6.716,0,15s6.716,15,15,15s15-6.716,15-15S23.284,0,15,0L15,0z"/>
	</symbol>

	<symbol id="cancel-medium" viewBox="0 0 30 30">
		<path fill="currentColor" d="M15,1.33c7.538,0,13.67,6.132,13.67,13.67S22.538,28.67,15,28.67S1.33,22.538,1.33,15S7.462,1.33,15,1.33 M15,0
			C6.716,0,0,6.716,0,15s6.716,15,15,15s15-6.716,15-15S23.284,0,15,0L15,0z"/>
		<path fill="currentColor" display="inline" d="M15.941,15l4.78-4.78c0.259-0.26,0.259-0.681,0-0.94c-0.26-0.26-0.682-0.26-0.941,0L15,14.059L10.22,9.28
			c-0.26-0.26-0.681-0.26-0.94,0s-0.26,0.681,0,0.94L14.059,15L9.28,19.779c-0.26,0.26-0.26,0.682,0,0.941
			c0.13,0.129,0.3,0.194,0.47,0.194s0.34-0.065,0.47-0.194l4.78-4.78l4.779,4.78c0.13,0.129,0.301,0.194,0.471,0.194
			s0.341-0.065,0.471-0.194c0.259-0.26,0.259-0.682,0-0.941L15.941,15z"/>
	</symbol>

	<symbol id="" viewBox="0 0 20 20">
	</symbol>
</svg>
